{
  "subject": "5050424c323032335554494c",
  "alias": "UTIL",
  "contactData": {
    "value": [
    	"x: @UtilCoin",
        "email: utilcoinada@gmail.com"
    ]
  },
  "url": {
    "value": "https://utilcoin.github.io/utilcoin"
  },
  "bio": {
    "value": "Cardano community member since 2021"
  },
  "goals": {
    "value":"Bring more utility for blockchain tech"
  }
}
